[gd_scene load_steps=3 format=2]

[ext_resource path="res://Scripts/Borders.gd" type="Script" id=1]
[ext_resource path="res://Sprites/Buttons/Blank.png" type="Texture" id=2]

[node name="Borders" type="Control"]
visible = false
anchor_right = 1.0
anchor_bottom = 1.0
script = ExtResource( 1 )

[node name="CanvasLayer" type="CanvasLayer" parent="."]
layer = 5

[node name="TextureRect" type="TextureRect" parent="CanvasLayer"]
modulate = Color( 0, 0, 0, 1 )
margin_right = 419.31
margin_bottom = 900.0
texture = ExtResource( 2 )
expand = true

[node name="TextureRect2" type="TextureRect" parent="CanvasLayer"]
modulate = Color( 0, 0, 0, 1 )
margin_left = 660.099
margin_right = 1080.1
margin_bottom = 900.0
texture = ExtResource( 2 )
expand = true

