[gd_scene load_steps=2 format=2]

[ext_resource path="res://Music/8bit_track_2.ogg" type="AudioStream" id=1]

[node name="AudioStreamPlayer" type="AudioStreamPlayer"]
pause_mode = 2
stream = ExtResource( 1 )
volume_db = -20.0

