[gd_scene load_steps=5 format=2]

[ext_resource path="res://Scripts/PlayerBody.gd" type="Script" id=1]
[ext_resource path="res://Sprites/Fruits/Spike.png" type="Texture" id=2]

[sub_resource type="CircleShape2D" id=1]
radius = 25.0

[sub_resource type="CircleShape2D" id=2]
radius = 14.5131

[node name="PlayerBody" type="KinematicBody2D" groups=[
"Body",
"Spike",
]]
collision_layer = 8
collision_mask = 16
script = ExtResource( 1 )

[node name="Sprite" type="Sprite" parent="."]
texture = ExtResource( 2 )

[node name="CollisionShape2D" type="CollisionShape2D" parent="."]
shape = SubResource( 1 )

[node name="Area2D" type="Area2D" parent="."]
space_override = 1
collision_layer = 8
collision_mask = 2

[node name="CollisionShape2D" type="CollisionShape2D" parent="Area2D"]
visible = false
shape = SubResource( 2 )

[connection signal="body_shape_entered" from="Area2D" to="." method="_on_Area2D_body_shape_entered"]
