[gd_scene load_steps=4 format=2]

[ext_resource path="res://Scripts/BigPellet.gd" type="Script" id=1]
[ext_resource path="res://Sprites/Fruits/Pellet.png" type="Texture" id=2]

[sub_resource type="CircleShape2D" id=1]
radius = 19.3333

[node name="BigPellet" type="Area2D" groups=[
"BigPellet",
]]
scale = Vector2( 1.5, 1.5 )
collision_mask = 3
script = ExtResource( 1 )

[node name="Sprite" type="Sprite" parent="."]
modulate = Color( 0.92549, 0.945098, 0.552941, 0.694118 )
position = Vector2( -8.43965e-007, 0 )
scale = Vector2( 1.333, 1.333 )
texture = ExtResource( 2 )

[node name="CollisionShape2D" type="CollisionShape2D" parent="."]
shape = SubResource( 1 )

[node name="StaticBody2D" type="StaticBody2D" parent="." groups=[
"BigPellet",
]]

[node name="CollisionShape2D2" type="CollisionShape2D" parent="StaticBody2D"]
shape = SubResource( 1 )

[connection signal="body_shape_entered" from="." to="." method="_on_BigPellet_body_shape_entered"]
