[gd_scene load_steps=4 format=2]

[ext_resource path="res://Scripts/Fruit.gd" type="Script" id=1]
[ext_resource path="res://Sprites/Fruits/Brocolli.png" type="Texture" id=2]

[sub_resource type="CircleShape2D" id=1]
radius = 19.3333

[node name="Brocolli" type="Area2D" groups=[
"Fruit",
]]
scale = Vector2( 1.5, 1.5 )
collision_mask = 2
script = ExtResource( 1 )

[node name="Sprite" type="Sprite" parent="."]
position = Vector2( 0, 1.2 )
scale = Vector2( 0.816, 0.821227 )
texture = ExtResource( 2 )

[node name="CollisionShape2D" type="CollisionShape2D" parent="."]
shape = SubResource( 1 )

