[gd_scene load_steps=4 format=2]

[ext_resource path="res://Scripts/Fruit.gd" type="Script" id=1]
[ext_resource path="res://Sprites/Fruits/Watermellon.png" type="Texture" id=2]

[sub_resource type="CircleShape2D" id=1]
radius = 19.3333

[node name="Watermellon" type="Area2D" groups=[
"Fruit",
]]
scale = Vector2( 1.5, 1.5 )
collision_mask = 2
script = ExtResource( 1 )

[node name="Sprite" type="Sprite" parent="."]
position = Vector2( 1.26767e-006, 0.0606065 )
scale = Vector2( 0.775758, 0.783699 )
texture = ExtResource( 2 )

[node name="CollisionShape2D" type="CollisionShape2D" parent="."]
visible = false
shape = SubResource( 1 )

